{
    "key": "group_5be75ee50d84c",
    "title": "Landing Page Phone Number",
    "fields": [
        {
            "key": "field_5be761bcc7151",
            "label": "Landing Page Text",
            "name": "landing_page_text",
            "type": "text",
            "instructions": "If left empty. Default value \"Contact\" is  used.",
            "required": 0,
            "conditional_logic": 0,
            "wrapper": {
                "width": "",
                "class": "",
                "id": ""
            },
            "default_value": "",
            "placeholder": "",
            "prepend": "",
            "append": "",
            "maxlength": ""
        },
        {
            "key": "field_5be75ef3279f5",
            "label": "Landing Page Phone Number",
            "name": "landing_page_phone_number",
            "type": "text",
            "instructions": "If left empty. Default value \"(425) 455-1263\" is  used.",
            "required": 0,
            "conditional_logic": 0,
            "wrapper": {
                "width": "",
                "class": "",
                "id": ""
            },
            "default_value": "",
            "placeholder": "",
            "prepend": "",
            "append": "",
            "maxlength": ""
        }
    ],
    "location": [
        [
            {
                "param": "page_template",
                "operator": "==",
                "value": "default"
            }
        ],
        [
            {
                "param": "page_template",
                "operator": "==",
                "value": "page-templates\/landing-page.php"
            }
        ]
    ],
    "menu_order": 0,
    "position": "side",
    "style": "default",
    "label_placement": "top",
    "instruction_placement": "label",
    "hide_on_screen": "",
    "active": 1,
    "description": "",
    "modified": 1556317668
}